%YAML 1.1
%TAG !u! tag:unity3d.com,2011:
--- !u!74 &7400000
AnimationClip:
  m_ObjectHideFlags: 0
  m_CorrespondingSourceObject: {fileID: 0}
  m_PrefabInstance: {fileID: 0}
  m_PrefabAsset: {fileID: 0}
  m_Name: Agua
  serializedVersion: 6
  m_Legacy: 0
  m_Compressed: 0
  m_UseHighQualityCurve: 1
  m_RotationCurves: []
  m_CompressedRotationCurves: []
  m_EulerCurves: []
  m_PositionCurves: []
  m_ScaleCurves: []
  m_FloatCurves: []
  m_PPtrCurves:
  - curve:
    - time: 0
      value: {fileID: 21300000, guid: cb1e2fe69911bb14995196d879e91b46, type: 3}
    - time: 0.016666668
      value: {fileID: 21300000, guid: 536d1e9f5323b3246b398889d72f3113, type: 3}
    - time: 0.033333335
      value: {fileID: 21300000, guid: 6eafeb2376c653541bae099025b2352b, type: 3}
    - time: 0.05
      value: {fileID: 21300000, guid: 0976bccf9e3c7994093fbe1a5a6bacac, type: 3}
    - time: 0.06666667
      value: {fileID: 21300000, guid: 10201e518beefa8449bfd75c72ab7302, type: 3}
    - time: 0.083333336
      value: {fileID: 21300000, guid: 64a3bf2dc75fe354caf7c29faff635d3, type: 3}
    - time: 0.1
      value: {fileID: 21300000, guid: 7e8fcae192cfcb942b16d51953d25b17, type: 3}
    - time: 0.11666667
      value: {fileID: 21300000, guid: e03419312962e514b8a9e2725433e93c, type: 3}
    - time: 0.13333334
      value: {fileID: 21300000, guid: f96859cb0e6e23941845c84b3f72c0af, type: 3}
    - time: 0.15
      value: {fileID: 21300000, guid: a484ba2bc0b19714884c666ba20e9b26, type: 3}
    - time: 0.16666667
      value: {fileID: 21300000, guid: 5c39f3a4f383a24428b9f0a8234d603d, type: 3}
    - time: 0.18333334
      value: {fileID: 21300000, guid: 785d74e266956cc46a81814c6e7745bd, type: 3}
    - time: 0.2
      value: {fileID: 21300000, guid: 3695ded8ed5d81f4bbfaac60c95817ad, type: 3}
    - time: 0.21666667
      value: {fileID: 21300000, guid: fc0e215a7832de44dada7c2dd63ed1c1, type: 3}
    - time: 0.23333333
      value: {fileID: 21300000, guid: 5d173c2a58834e04fa336ade37796f14, type: 3}
    - time: 0.25
      value: {fileID: 21300000, guid: 1920a7ac6a10be744adec6d6bce2208f, type: 3}
    attribute: m_Sprite
    path: 
    classID: 212
    script: {fileID: 0}
  m_SampleRate: 60
  m_WrapMode: 0
  m_Bounds:
    m_Center: {x: 0, y: 0, z: 0}
    m_Extent: {x: 0, y: 0, z: 0}
  m_ClipBindingConstant:
    genericBindings:
    - serializedVersion: 2
      path: 0
      attribute: 0
      script: {fileID: 0}
      typeID: 212
      customType: 23
      isPPtrCurve: 1
    pptrCurveMapping:
    - {fileID: 21300000, guid: cb1e2fe69911bb14995196d879e91b46, type: 3}
    - {fileID: 21300000, guid: 536d1e9f5323b3246b398889d72f3113, type: 3}
    - {fileID: 21300000, guid: 6eafeb2376c653541bae099025b2352b, type: 3}
    - {fileID: 21300000, guid: 0976bccf9e3c7994093fbe1a5a6bacac, type: 3}
    - {fileID: 21300000, guid: 10201e518beefa8449bfd75c72ab7302, type: 3}
    - {fileID: 21300000, guid: 64a3bf2dc75fe354caf7c29faff635d3, type: 3}
    - {fileID: 21300000, guid: 7e8fcae192cfcb942b16d51953d25b17, type: 3}
    - {fileID: 21300000, guid: e03419312962e514b8a9e2725433e93c, type: 3}
    - {fileID: 21300000, guid: f96859cb0e6e23941845c84b3f72c0af, type: 3}
    - {fileID: 21300000, guid: a484ba2bc0b19714884c666ba20e9b26, type: 3}
    - {fileID: 21300000, guid: 5c39f3a4f383a24428b9f0a8234d603d, type: 3}
    - {fileID: 21300000, guid: 785d74e266956cc46a81814c6e7745bd, type: 3}
    - {fileID: 21300000, guid: 3695ded8ed5d81f4bbfaac60c95817ad, type: 3}
    - {fileID: 21300000, guid: fc0e215a7832de44dada7c2dd63ed1c1, type: 3}
    - {fileID: 21300000, guid: 5d173c2a58834e04fa336ade37796f14, type: 3}
    - {fileID: 21300000, guid: 1920a7ac6a10be744adec6d6bce2208f, type: 3}
  m_AnimationClipSettings:
    serializedVersion: 2
    m_AdditiveReferencePoseClip: {fileID: 0}
    m_AdditiveReferencePoseTime: 0
    m_StartTime: 0
    m_StopTime: 0.26666668
    m_OrientationOffsetY: 0
    m_Level: 0
    m_CycleOffset: 0
    m_HasAdditiveReferencePose: 0
    m_LoopTime: 1
    m_LoopBlend: 0
    m_LoopBlendOrientation: 0
    m_LoopBlendPositionY: 0
    m_LoopBlendPositionXZ: 0
    m_KeepOriginalOrientation: 0
    m_KeepOriginalPositionY: 1
    m_KeepOriginalPositionXZ: 0
    m_HeightFromFeet: 0
    m_Mirror: 0
  m_EditorCurves: []
  m_EulerEditorCurves: []
  m_HasGenericRootTransform: 0
  m_HasMotionFloatCurves: 0
  m_Events: []
